com\enterprise\services\TransactionServicesImpl.class
com\enterprise\services\UOMListServicesImpl.class
com\enterprise\dao\UOMConversionDaoImpl.class
com\enterprise\dao\TransactionDetailDao.class
com\enterprise\dao\TransactionDao.class
com\enterprise\services\TokenServicesImpl.class
com\enterprise\models\TransactionModel.class
com\enterprise\services\ComplaintServices.class
com\enterprise\dao\ItemDaoImpl.class
com\enterprise\services\ComplaintServicesImpl.class
com\enterprise\services\TransactionServices.class
com\enterprise\controllers\UOMController.class
com\enterprise\dao\CategoryDao.class
com\enterprise\services\CategoryServicesImpl.class
com\enterprise\models\CategoryModel.class
com\enterprise\controllers\CategoryController.class
com\enterprise\controllers\ComplaintController.class
com\enterprise\controllers\UserController.class
com\enterprise\dao\TransactionDetailDaoImpl.class
com\enterprise\services\UserServices.class
com\enterprise\dao\CategoryDaoImpl.class
com\enterprise\controllers\ItemController.class
com\enterprise\dao\UOMListDaoImpl.class
com\enterprise\dao\UserDaoImpl.class
com\enterprise\services\UserServicesImpl.class
com\enterprise\dao\ComplaintDaoImpl.class
com\enterprise\config\HibernateConfiguration.class
com\enterprise\dao\UOMListDao.class
com\enterprise\models\CartDetailModel.class
com\enterprise\models\ItemModel.class
com\enterprise\dao\TransactionDaoImpl.class
com\enterprise\dao\TokenDaoImpl.class
com\enterprise\dao\UserDao.class
com\enterprise\dao\CartDetailDaoImpl.class
com\enterprise\dao\TokenDao.class
com\enterprise\services\CartServices.class
com\enterprise\services\CartServicesImpl.class
com\enterprise\models\UOMConversionModel.class
com\enterprise\services\UOMConversionServices.class
com\enterprise\dao\CartDaoImpl.class
com\enterprise\services\CategoryServices.class
com\enterprise\services\TokenServices.class
com\enterprise\models\UserModel.class
com\enterprise\services\CryptWithSHA256.class
com\enterprise\services\ItemServices.class
com\enterprise\models\TransactionDetailModel.class
com\enterprise\services\CartDetailServices.class
com\enterprise\dao\CartDetailDao.class
com\enterprise\models\ComplaintModel.class
com\enterprise\config\Config.class
com\enterprise\services\UOMListServices.class
com\enterprise\controllers\TransactionController.class
com\enterprise\dao\CartDao.class
com\enterprise\dao\ItemDao.class
com\enterprise\dao\ComplaintDao.class
com\enterprise\services\ItemServicesImpl.class
com\enterprise\services\UOMConversionServicesImpl.class
com\enterprise\dao\UOMConversionDao.class
com\enterprise\services\CartDetailServicesImpl.class
com\enterprise\services\TransactionDetailServices.class
com\enterprise\models\TokenModel.class
com\enterprise\services\TransactionDetailServicesImpl.class
com\enterprise\dao\AbstractDao.class
com\enterprise\config\WebInitializer.class
com\enterprise\controllers\DefaultController.class
com\enterprise\controllers\CartController.class
com\enterprise\models\CartModel.class
com\enterprise\models\UOMListModel.class
